{
  "2008": "105.10",
  "2009": "112.33",
  "2010": "144.81",
  "2011": "121.09",
  "2012": "111.66",
  "2013": "139.22",
  "2014": "122.11",
  "2015": "130.83",
  "2016": "152.03",
  "2017": "122.22"
}